module game

go 1.20

replace github.com/coreos/bbolt => go.etcd.io/bbolt v1.3.5

replace google.golang.org/grpc => google.golang.org/grpc v1.26.0

require (
	github.com/BurntSushi/toml v1.3.2
	github.com/beanstalkd/go-beanstalk v0.2.0
	github.com/bytedance/sonic v1.10.0-rc3
	github.com/coreos/etcd v3.3.27+incompatible
	github.com/doug-martin/goqu/v9 v9.18.0
	github.com/fasthttp/router v1.4.20
	github.com/forgoer/openssl v1.6.0
	github.com/fxamacker/cbor/v2 v2.4.0
	github.com/go-redis/redis/v8 v8.11.5
	github.com/go-sql-driver/mysql v1.7.1
	github.com/go-telegram-bot-api/telegram-bot-api/v5 v5.5.1
	github.com/goccy/go-json v0.10.2
	github.com/google/uuid v1.3.0
	github.com/ip2location/ip2location-go/v9 v9.6.0
	github.com/ipipdotnet/ipdb-go v1.3.3
	github.com/jmoiron/sqlx v1.3.5
	github.com/logrusorgru/aurora v2.0.3+incompatible
	github.com/minio/md5-simd v1.1.2
	github.com/modern-go/reflect2 v1.0.2
	github.com/nickalie/go-webpbin v0.0.0-20220110095747-f10016bf2dc1
	github.com/pelletier/go-toml/v2 v2.0.9
	github.com/ryrpc/client v0.0.0-20230725134635-84d471a47867
	github.com/shopspring/decimal v1.3.1
	github.com/silenceper/pool v1.0.0
	github.com/spaolacci/murmur3 v1.1.0
	github.com/valyala/bytebufferpool v1.0.0
	github.com/valyala/fasthttp v1.48.0
	github.com/valyala/fastjson v1.6.4
	github.com/xuri/excelize/v2 v2.7.1
	github.com/xxtea/xxtea-go v0.0.0-20170828040851-35c4b17eecf6
	go.uber.org/automaxprocs v1.5.3
	golang.org/x/crypto v0.12.0
	google.golang.org/protobuf v1.31.0
	lukechampine.com/frand v1.4.2
)

require (
	github.com/aead/chacha20 v0.0.0-20180709150244-8b13a72661da // indirect
	github.com/andybalholm/brotli v1.0.5 // indirect
	github.com/cespare/xxhash/v2 v2.2.0 // indirect
	github.com/chenzhuoyu/base64x v0.0.0-20230717121745-296ad89f973d // indirect
	github.com/chenzhuoyu/iasm v0.9.0 // indirect
	github.com/coreos/bbolt v0.0.0-00010101000000-000000000000 // indirect
	github.com/coreos/go-semver v0.3.1 // indirect
	github.com/coreos/go-systemd v0.0.0-20191104093116-d3cd4ed1dbcf // indirect
	github.com/coreos/pkg v0.0.0-20230601102743-20bbbf26f4d8 // indirect
	github.com/dgrijalva/jwt-go v3.2.0+incompatible // indirect
	github.com/dgryski/go-rendezvous v0.0.0-20200823014737-9f7001d12a5f // indirect
	github.com/dsnet/compress v0.0.1 // indirect
	github.com/dustin/go-humanize v1.0.0 // indirect
	github.com/frankban/quicktest v1.14.5 // indirect
	github.com/gogo/protobuf v1.3.2 // indirect
	github.com/golang/groupcache v0.0.0-20210331224755-41bb18bfe9da // indirect
	github.com/golang/protobuf v1.5.3 // indirect
	github.com/golang/snappy v0.0.4 // indirect
	github.com/google/btree v1.0.1 // indirect
	github.com/gorilla/websocket v1.4.2 // indirect
	github.com/grpc-ecosystem/go-grpc-middleware v1.3.0 // indirect
	github.com/grpc-ecosystem/go-grpc-prometheus v1.2.0 // indirect
	github.com/grpc-ecosystem/grpc-gateway v1.16.0 // indirect
	github.com/jonboulle/clockwork v0.2.2 // indirect
	github.com/json-iterator/go v1.1.12 // indirect
	github.com/klauspost/compress v1.16.7 // indirect
	github.com/klauspost/cpuid/v2 v2.2.5 // indirect
	github.com/mattn/go-sqlite3 v1.14.9 // indirect
	github.com/mholt/archiver v3.1.1+incompatible // indirect
	github.com/mohae/deepcopy v0.0.0-20170929034955-c48cc78d4826 // indirect
	github.com/nickalie/go-binwrapper v0.0.0-20190114141239-525121d43c84 // indirect
	github.com/nwaples/rardecode v1.1.3 // indirect
	github.com/pierrec/lz4 v2.6.1+incompatible // indirect
	github.com/prometheus/client_golang v1.11.1 // indirect
	github.com/richardlehane/mscfb v1.0.4 // indirect
	github.com/richardlehane/msoleps v1.0.3 // indirect
	github.com/savsgio/gotils v0.0.0-20230208104028-c358bd845dee // indirect
	github.com/sirupsen/logrus v1.9.3 // indirect
	github.com/soheilhy/cmux v0.1.5 // indirect
	github.com/tmc/grpc-websocket-proxy v0.0.0-20201229170055-e5319fda7802 // indirect
	github.com/twitchyliquid64/golang-asm v0.15.1 // indirect
	github.com/ulikunitz/xz v0.5.11 // indirect
	github.com/x448/float16 v0.8.4 // indirect
	github.com/xi2/xz v0.0.0-20171230120015-48954b6210f8 // indirect
	github.com/xiang90/probing v0.0.0-20190116061207-43a291ad63a2 // indirect
	github.com/xuri/efp v0.0.0-20230422071738-01f4e37c47e9 // indirect
	github.com/xuri/nfp v0.0.0-20230503010013-3f38cdbb0b83 // indirect
	go.uber.org/multierr v1.11.0 // indirect
	go.uber.org/zap v1.25.0 // indirect
	golang.org/x/arch v0.4.0 // indirect
	golang.org/x/net v0.14.0 // indirect
	golang.org/x/sys v0.11.0 // indirect
	golang.org/x/text v0.12.0 // indirect
	golang.org/x/time v0.0.0-20211116232009-f0f3c7e86c11 // indirect
	google.golang.org/genproto v0.0.0-20230807174057-1744710a1577 // indirect
	google.golang.org/genproto/googleapis/api v0.0.0-20230807174057-1744710a1577 // indirect
	google.golang.org/genproto/googleapis/rpc v0.0.0-20230807174057-1744710a1577 // indirect
	google.golang.org/grpc v1.57.0 // indirect
	lukechampine.com/uint128 v1.3.0 // indirect
	sigs.k8s.io/yaml v1.3.0 // indirect
)
